…
## Restrictions & Data Preparations

Currently only `mus musculus` datasets are supported.

The data frame input needs to have the following dimensions:

- `ensembl_gene_id` or `EntrezID` (`character`)
- `q_value` (`numeric`)
- `fc` (`numeric`)
- `Symbol` (`character`) (optional, but it's easier to identify genes that cannot be associated with an EntrezID)

Here is an example tibble.

```R
# A tibble: 18,777 x 3
   ensembl_gene_id    q_value       fc
   <chr>                <dbl>    <dbl>
 1 ENSMUSG00000103922  0.998   0.00361
 2 ENSMUSG00000025903  0.443   0.141  
 3 ENSMUSG00000104217  0.443   0.141  
 4 ENSMUSG00000033813  0.443   0.141  
 5 ENSMUSG00000033793  0.718   0.0864 
 6 ENSMUSG00000025905  0.0553  0.334  
 7 ENSMUSG00000025907  0.747   0.0919 
 8 ENSMUSG00000087247  0.282  -3.24   
 9 ENSMUSG00000033740  0.431  -0.221  
10 ENSMUSG00000102135  0.672  -0.547  
# … with 18,767 more rows
```
…
